Pad
https://annuel.framapad.org/p/rnmtw

Renaming The Web Public
dat://36652fc7932d5c8f59cb03c0d9325a7a123e560268815269ba747e477b526f41/

Renaming The Web exhibition version
dat://563ce182e50baf65ca25cbaa59f60c7dc63cdc799b2d4d7ddb1496797111152f/
